concept_code,concept_code_target,vocabulary_id_target,relationship_id,vocabulary_id
unknown,asked-unknown,FHIR - data-absent-reason,Is a,FHIR - data-absent-reason
unknown,temp-unknown,FHIR - data-absent-reason,Is a,FHIR - data-absent-reason
unknown,not-asked,FHIR - data-absent-reason,Is a,FHIR - data-absent-reason
unknown,asked-declined,FHIR - data-absent-reason,Is a,FHIR - data-absent-reason
error,not-a-number,FHIR - data-absent-reason,Is a,FHIR - data-absent-reason
error,negative-infinity,FHIR - data-absent-reason,Is a,FHIR - data-absent-reason
error,positive-infinity,FHIR - data-absent-reason,Is a,FHIR - data-absent-reason
